-- Merging decision tree log ---
manifest
ADDED from /Users/gregorygalushka/workspace/react-native/epihealth/node_modules/react-native-webview-bridge/android/src/main/AndroidManifest.xml:1:1-4:12
INJECTED from /Users/gregorygalushka/workspace/react-native/epihealth/node_modules/react-native-webview-bridge/android/src/main/AndroidManifest.xml:1:1-4:12
INJECTED from /Users/gregorygalushka/workspace/react-native/epihealth/node_modules/react-native-webview-bridge/android/src/main/AndroidManifest.xml:1:1-4:12
INJECTED from /Users/gregorygalushka/workspace/react-native/epihealth/node_modules/react-native-webview-bridge/android/src/main/AndroidManifest.xml:1:1-4:12
INJECTED from /Users/gregorygalushka/workspace/react-native/epihealth/node_modules/react-native-webview-bridge/android/src/main/AndroidManifest.xml:1:1-4:12
INJECTED from /Users/gregorygalushka/workspace/react-native/epihealth/node_modules/react-native-webview-bridge/android/src/main/AndroidManifest.xml:1:1-4:12
INJECTED from /Users/gregorygalushka/workspace/react-native/epihealth/node_modules/react-native-webview-bridge/android/src/main/AndroidManifest.xml:1:1-4:12
	package
		ADDED from /Users/gregorygalushka/workspace/react-native/epihealth/node_modules/react-native-webview-bridge/android/src/main/AndroidManifest.xml:2:5-56
		INJECTED from /Users/gregorygalushka/workspace/react-native/epihealth/node_modules/react-native-webview-bridge/android/src/main/AndroidManifest.xml
		INJECTED from /Users/gregorygalushka/workspace/react-native/epihealth/node_modules/react-native-webview-bridge/android/src/main/AndroidManifest.xml
	android:versionName
		INJECTED from /Users/gregorygalushka/workspace/react-native/epihealth/node_modules/react-native-webview-bridge/android/src/main/AndroidManifest.xml
		ADDED from /Users/gregorygalushka/workspace/react-native/epihealth/node_modules/react-native-webview-bridge/android/src/main/AndroidManifest.xml:1:1-4:12
		INJECTED from /Users/gregorygalushka/workspace/react-native/epihealth/node_modules/react-native-webview-bridge/android/src/main/AndroidManifest.xml
	android:versionCode
		INJECTED from /Users/gregorygalushka/workspace/react-native/epihealth/node_modules/react-native-webview-bridge/android/src/main/AndroidManifest.xml
		ADDED from /Users/gregorygalushka/workspace/react-native/epihealth/node_modules/react-native-webview-bridge/android/src/main/AndroidManifest.xml:1:1-4:12
		INJECTED from /Users/gregorygalushka/workspace/react-native/epihealth/node_modules/react-native-webview-bridge/android/src/main/AndroidManifest.xml
	xmlns:android
		ADDED from /Users/gregorygalushka/workspace/react-native/epihealth/node_modules/react-native-webview-bridge/android/src/main/AndroidManifest.xml:1:11-69
uses-sdk
INJECTED from /Users/gregorygalushka/workspace/react-native/epihealth/node_modules/react-native-webview-bridge/android/src/main/AndroidManifest.xml reason: use-sdk injection requested
INJECTED from /Users/gregorygalushka/workspace/react-native/epihealth/node_modules/react-native-webview-bridge/android/src/main/AndroidManifest.xml
INJECTED from /Users/gregorygalushka/workspace/react-native/epihealth/node_modules/react-native-webview-bridge/android/src/main/AndroidManifest.xml
INJECTED from /Users/gregorygalushka/workspace/react-native/epihealth/node_modules/react-native-webview-bridge/android/src/main/AndroidManifest.xml
INJECTED from /Users/gregorygalushka/workspace/react-native/epihealth/node_modules/react-native-webview-bridge/android/src/main/AndroidManifest.xml
	android:targetSdkVersion
		INJECTED from /Users/gregorygalushka/workspace/react-native/epihealth/node_modules/react-native-webview-bridge/android/src/main/AndroidManifest.xml
		ADDED from /Users/gregorygalushka/workspace/react-native/epihealth/node_modules/react-native-webview-bridge/android/src/main/AndroidManifest.xml
		INJECTED from /Users/gregorygalushka/workspace/react-native/epihealth/node_modules/react-native-webview-bridge/android/src/main/AndroidManifest.xml
	android:minSdkVersion
		INJECTED from /Users/gregorygalushka/workspace/react-native/epihealth/node_modules/react-native-webview-bridge/android/src/main/AndroidManifest.xml
		ADDED from /Users/gregorygalushka/workspace/react-native/epihealth/node_modules/react-native-webview-bridge/android/src/main/AndroidManifest.xml
		INJECTED from /Users/gregorygalushka/workspace/react-native/epihealth/node_modules/react-native-webview-bridge/android/src/main/AndroidManifest.xml
